{
    "initialTemp": 100,
    "simulationTime": 100,
    "simulationStep": 1,
    "ambientTemp": 1200,
    "alfa": 300,
    "H": 0.1,
    "B": 0.1,
    "N_H": 31,
    "N_B": 31,
    "specificHeat": 700,
    "conductivity": 25,
    "density": 7800
}